{
  "name": "ziphid",
  "version": "1.0.0",
  "dependencies": {
    "commander": {
      "version": "1.1.1",
      "from": "commander",
      "dependencies": {
        "keypress": {
          "version": "0.1.0",
          "from": "keypress@0.1.x"
        }
      }
    },
    "mkdirp": {
      "version": "0.3.5",
      "from": "mkdirp"
    },
    "node-term-ui": {
      "version": "0.0.5",
      "from": "node-term-ui",
      "dependencies": {
        "underscore": {
          "version": "1.6.0",
          "from": "underscore@1.6.0",
          "resolved": "https://registry.npmjs.org/underscore/-/underscore-1.6.0.tgz"
        },
        "underscore.string": {
          "version": "2.3.3",
          "from": "underscore.string@2.3.3",
          "resolved": "https://registry.npmjs.org/underscore.string/-/underscore.string-2.3.3.tgz"
        }
      }
    }
  }
}
